{"pages": [{
	"name": "Login",
	"properties": {
		"icon": {
			"readonly": "true",
			"itemName": "defaultClosureMasterPage",
			"value": "/img/icons/home.png",
			"type": "string"
		},
		"TemplateName": {
			"readonly": "true",
			"itemName": "defaultClosureMasterPage",
			"value": "LaunchpadPageTemplate",
			"type": "string"
		},
		"Description": {
			"readonly": "true",
			"itemName": "defaultClosureMasterPage",
			"type": "String"
		},
		"title": {
			"readonly": "true",
			"itemName": "page_1396861454825",
			"value": "Home",
			"type": "string"
		},
		"createdBy": {
			"readonly": "true",
			"itemName": "page_1396861454825",
			"value": "admin",
			"type": "string"
		},
		"modifiedBy": {
			"readonly": "true",
			"itemName": "page_1396861454825",
			"type": "string"
		},
		"behaviors": {
			"readonly": "true",
			"itemName": "page_1396861454825",
			"value": "be.perspective.Manager be.portalClientExt.PortalManagerPreferencesForm",
			"type": "string"
		},
		"bd_seo_canonical": {
			"label": "Canonical",
			"readonly": "true",
			"itemName": "page_1396861454825",
			"value": "bfaa17cb-9761-4ef9-bf6a-6c55370fbe31",
			"type": "linkRef"
		},
		"bundleName": {
			"readonly": "true",
			"itemName": "page_1396861454825",
			"value": "dashboard",
			"type": "string"
		},
		"client-template": {
			"label": "Client Template",
			"readonly": "true",
			"itemName": "page_1396861454825",
			"value": "page",
			"type": "string"
		}
	},
	"tags": [
		"homepage"
	],
	"children": [
		{
			"name": "container_a721cd52-eee6-4a7e-a81a-a31995968209",
			"type": "container",
			"properties": {
				"autoExtend": {
					"readonly": "true",
					"itemName": "Manageable_Area_Closure",
					"value": "true",
					"type": "boolean"
				},
				"viewNamespace": {
					"readonly": "true",
					"itemName": "Manageable_Area_Closure",
					"value": "http://backbase.com/2013/aurora",
					"type": "string"
				},
				"TemplateName": {
					"readonly": "true",
					"itemName": "Manageable_Area_Closure",
					"value": "ManageableArea",
					"type": "string"
				},
				"isManageableArea": {
					"readonly": "true",
					"itemName": "Manageable_Area_Closure",
					"value": "true",
					"type": "boolean"
				},
				"Description": {
					"label": "Description",
					"readonly": "true",
					"itemName": "Manageable_Area_Closure",
					"value": "Area that will be manageable on regular pages. Items can be reordered, added and deleted.",
					"type": "string"
				},
				"title": {
					"readonly": "true",
					"itemName": "Manageable_Area_Closure",
					"value": "Manageable Area (Closure)",
					"type": "string"
				},
				"area": {
					"readonly": "true",
					"itemName": "Manageable_Area_defaultClosureMasterPage",
					"value": "0",
					"type": "string"
				},
				"order": {
					"readonly": "true",
					"itemName": "Manageable_Area_defaultClosureMasterPage",
					"value": "0.0",
					"type": "double"
				},
				"thumbnailUrl": {
					"readonly": "true",
					"itemName": "Manageable_Area_Closure",
					"value": "$(contextRoot)/static/backbase.com.2013.aurora/containers/ManageableArea/media/ManageableArea-icon.png",
					"type": "string"
				},
				"config": {
					"readonly": "true",
					"itemName": "Manageable_Area_Closure",
					"value": "$(contextRoot)/static/backbase.com.2013.aurora/containers/ManageableArea/config.xml",
					"type": "string"
				}
			},
			"tags": [
			],
			"children": [
				{
					"type": "widget",
					"loadInContextPath": true,
					"id" : "widget-login-multifactor-7426473",
					"version" : "0.11.0",
					"viewmodes" : [
						"floating"
					],
					"name" : "Login",
					"shortName" : "Login",
					"description" : "Simple Portalserver accounts widget",
					"author" : "Foo Bar Corp",
					"authorHref" : "http://backbase.com/",
					"authorEmail" : "support@backbase.com",
					"preferences" : [{
						"name":"messageSrc",
						"value":"$(contextPath)/static/launchpad/conf/messages.json",
						"readonly":true
					},{
						"name":"preLoad",
						"value": true,
						"readonly":true
					},{
						"name":"sessionUrl",
						"value":"$(contextPath)/services/rest/authentication/session/initiate",
						"readonly":true
					},{
						"name":"prefixSessionUrl",
						"value":"",
						"readonly":true
					},{
						"name":"reloadOnSuccess",
						"value":true,
						"readonly":true
					}],
					"license" : null,
					"licenseHref" : null,
					"icons" : [
						"$(contextRoot)/static/launchpad/widgets/login-multifactor/icon.png"
					],
					"content" : {
						"src" : "$(contextRoot)/static/launchpad/widgets/login-multifactor/index.html",
						"type" : "text/html",
						"encoding" : "UTF-8"
					},
					"features" : []
				}
			]
		}
	]
},{
	"name": "Accounts",
	"properties": {
		"icon": {
			"readonly": "true",
			"itemName": "defaultClosureMasterPage",
			"value": "/img/icons/ic_accounts.png",
			"type": "string"
		},
		"TemplateName": {
			"readonly": "true",
			"itemName": "defaultClosureMasterPage",
			"value": "LaunchpadPageTemplate",
			"type": "string"
		},
		"Description": {
			"readonly": "true",
			"itemName": "defaultClosureMasterPage",
			"type": "String"
		},
		"title": {
			"readonly": "true",
			"itemName": "page_1396861454825",
			"value": "Accounts",
			"type": "string"
		},
		"createdBy": {
			"readonly": "true",
			"itemName": "page_1396861454825",
			"value": "admin",
			"type": "string"
		},
		"modifiedBy": {
			"readonly": "true",
			"itemName": "page_1396861454825",
			"type": "string"
		},
		"behaviors": {
			"readonly": "true",
			"itemName": "page_1396861454825",
			"value": "be.perspective.Manager be.portalClientExt.PortalManagerPreferencesForm",
			"type": "string"
		},
		"bd_seo_canonical": {
			"label": "Canonical",
			"readonly": "true",
			"itemName": "page_1396861454825",
			"value": "bfaa17cb-9761-4ef9-bf6a-6c55370fbe31",
			"type": "linkRef"
		},
		"bundleName": {
			"readonly": "true",
			"itemName": "page_1396861454825",
			"value": "dashboard",
			"type": "string"
		},
		"client-template": {
			"label": "Client Template",
			"readonly": "true",
			"itemName": "page_1396861454825",
			"value": "page",
			"type": "string"
		}
	},
	"tags": [
		"accounts"
	],
	"children": [
		{
			"name": "container_a721cd52-eee6-4a7e-a81a-a31995968209",
			"type": "container",
			"properties": {
				"autoExtend": {
					"readonly": "true",
					"itemName": "Manageable_Area_Closure",
					"value": "true",
					"type": "boolean"
				},
				"viewNamespace": {
					"readonly": "true",
					"itemName": "Manageable_Area_Closure",
					"value": "http://backbase.com/2013/aurora",
					"type": "string"
				},
				"TemplateName": {
					"readonly": "true",
					"itemName": "Manageable_Area_Closure",
					"value": "ManageableArea",
					"type": "string"
				},
				"isManageableArea": {
					"readonly": "true",
					"itemName": "Manageable_Area_Closure",
					"value": "true",
					"type": "boolean"
				},
				"Description": {
					"label": "Description",
					"readonly": "true",
					"itemName": "Manageable_Area_Closure",
					"value": "Area that will be manageable on regular pages. Items can be reordered, added and deleted.",
					"type": "string"
				},
				"title": {
					"readonly": "true",
					"itemName": "Manageable_Area_Closure",
					"value": "Manageable Area (Closure)",
					"type": "string"
				},
				"area": {
					"readonly": "true",
					"itemName": "Manageable_Area_defaultClosureMasterPage",
					"value": "0",
					"type": "string"
				},
				"order": {
					"readonly": "true",
					"itemName": "Manageable_Area_defaultClosureMasterPage",
					"value": "0.0",
					"type": "double"
				},
				"thumbnailUrl": {
					"readonly": "true",
					"itemName": "Manageable_Area_Closure",
					"value": "$(contextRoot)/static/backbase.com.2013.aurora/containers/ManageableArea/media/ManageableArea-icon.png",
					"type": "string"
				},
				"config": {
					"readonly": "true",
					"itemName": "Manageable_Area_Closure",
					"value": "$(contextRoot)/static/backbase.com.2013.aurora/containers/ManageableArea/config.xml",
					"type": "string"
				}
			},
			"tags": [

			],
			"children": [
				{
					"type":"widget",
					"id":"widget-accounts-7426473",
					"version":"0.11.0",

					"viewmodes":[
						"floating"
					],
					"name":"Accounts",
					"shortName":"Accounts",
					"description":"Simple Portalserver accounts widget",
					"author":"Foo Bar Corp",
					"authorHref":"http://backbase.com/",
					"authorEmail":"support@backbase.com",
					"preferences":[
						{
							"name":"accountsDataSrc",
							"value":"$(contextPath)/services/rest/current-accounts"
						},{
							"name":"preLoad",
							"value": true,
							"readonly":true
						},
						{
							"name":"messageSrc",
							"value":"$(contextPath)/static/launchpad/conf/messages.json",
							"readonly":true
						},
						{
							"name":"groupsDataSrc",
							"value":"$(contextPath)/static/launchpad/widgets/accounts/data/groups.json",
							"readonly":true
						},
						{
							"name":"showGroups",
							"value":"true",
							"readonly":true
						}
					],
					"license":null,
					"licenseHref":null,
					"icons":[
						"$(contextRoot)/static/launchpad/widgets/accounts/icon.png"
					],
					"content":{
						"src":"$(contextRoot)/static/launchpad/widgets/accounts/index.html",
						"type":"text/html",
						"encoding":"UTF-8"
					},
					"features":[

					]
				}

			]
		}
	]
},{
	"name": "Transactions",
	"properties": {
		"icon": {
			"readonly": "true",
			"itemName": "defaultClosureMasterPage",
			"value": "/img/icons/ic_transactions.png",
			"type": "string"
		},
		"TemplateName": {
			"readonly": "true",
			"itemName": "defaultClosureMasterPage",
			"value": "LaunchpadPageTemplate",
			"type": "string"
		},
		"Description": {
			"readonly": "true",
			"itemName": "defaultClosureMasterPage",
			"type": "String"
		},
		"title": {
			"readonly": "true",
			"itemName": "page_1396861454825",
			"value": "Transactions",
			"type": "string"
		},
		"createdBy": {
			"readonly": "true",
			"itemName": "page_1396861454825",
			"value": "admin",
			"type": "string"
		},
		"modifiedBy": {
			"readonly": "true",
			"itemName": "page_1396861454825",
			"type": "string"
		},
		"behaviors": {
			"readonly": "true",
			"itemName": "page_1396861454825",
			"value": "be.perspective.Manager be.portalClientExt.PortalManagerPreferencesForm",
			"type": "string"
		},
		"bd_seo_canonical": {
			"label": "Canonical",
			"readonly": "true",
			"itemName": "page_1396861454825",
			"value": "bfaa17cb-9761-4ef9-bf6a-6c55370fbe31",
			"type": "linkRef"
		},
		"bundleName": {
			"readonly": "true",
			"itemName": "page_1396861454825",
			"value": "dashboard",
			"type": "string"
		},
		"client-template": {
			"label": "Client Template",
			"readonly": "true",
			"itemName": "page_1396861454825",
			"value": "page",
			"type": "string"
		}
	},
	"tags": [
		"transactions"
	],
	"children": [
		{
			"name": "container_a721cd52-eee6-4a7e-a81a-a31995968209",
			"type": "container",
			"properties": {
				"autoExtend": {
					"readonly": "true",
					"itemName": "Manageable_Area_Closure",
					"value": "true",
					"type": "boolean"
				},
				"viewNamespace": {
					"readonly": "true",
					"itemName": "Manageable_Area_Closure",
					"value": "http://backbase.com/2013/aurora",
					"type": "string"
				},
				"TemplateName": {
					"readonly": "true",
					"itemName": "Manageable_Area_Closure",
					"value": "ManageableArea",
					"type": "string"
				},
				"isManageableArea": {
					"readonly": "true",
					"itemName": "Manageable_Area_Closure",
					"value": "true",
					"type": "boolean"
				},
				"Description": {
					"label": "Description",
					"readonly": "true",
					"itemName": "Manageable_Area_Closure",
					"value": "Area that will be manageable on regular pages. Items can be reordered, added and deleted.",
					"type": "string"
				},
				"title": {
					"readonly": "true",
					"itemName": "Manageable_Area_Closure",
					"value": "Manageable Area (Closure)",
					"type": "string"
				},
				"area": {
					"readonly": "true",
					"itemName": "Manageable_Area_defaultClosureMasterPage",
					"value": "0",
					"type": "string"
				},
				"order": {
					"readonly": "true",
					"itemName": "Manageable_Area_defaultClosureMasterPage",
					"value": "0.0",
					"type": "double"
				},
				"thumbnailUrl": {
					"readonly": "true",
					"itemName": "Manageable_Area_Closure",
					"value": "$(contextRoot)/static/backbase.com.2013.aurora/containers/ManageableArea/media/ManageableArea-icon.png",
					"type": "string"
				},
				"config": {
					"readonly": "true",
					"itemName": "Manageable_Area_Closure",
					"value": "$(contextRoot)/static/backbase.com.2013.aurora/containers/ManageableArea/config.xml",
					"type": "string"
				}
			},
			"tags": [
			],
			"children": [
				{
					"type": "widget",

					"id" : "widget-profile-742642713",
					"version" : "0.11.0",
					"height" : "500",
					"width" : "200",
					"viewmodes" : [
						"floating"
					],
					"name" : "Login",
					"shortName" : "Login",
					"description" : "Simple Portalserver accounts widget",
					"author" : "Foo Bar Corp",
					"authorHref" : "http://backbase.com/",
					"authorEmail" : "support@backbase.com",
					"preferences" : [{
						"name":"accountsDataSrc",
						"value":"$(contextPath)/services/rest/current-accounts",
						"readonly":true
					},{
						"name":"preLoad",
						"value": true,
						"readonly":true
					},{
						"name":"transactionsDataSrc",
						"value":"$(contextPath)/services/rest/current-accounts/$(accountId)/transactions",
						"readonly":true
					},{
						"name":"contactListDataSrc",
						"value":"$(contextPath)/services/rest/counterparties",
						"readonly":true
					},{
						"name": "messageSrc",
						"value": "$(contextPath)/static/launchpad/conf/messages.json"
					},{
						"name": "categoryDataSrc",
						"value": "$(contextPath)/services/rest/pfm/transaction-categories"
					},{
						"name": "transactionDetailsDataSrc",
						"value": "$(contextPath)/services/rest/current-accounts/transaction/$(transactionId)/details"
					},{
						"name": "contactsDataSrc",
						"value": "$(contextPath)/services/rest/party-data-management/counter-parties"
					},{
						"name": "accountBalanceChartDataSrc",
						"value": "$(contextPath)/services/rest/party-data-management/counter-parties"
					},{
						"name": "transactionsChartDataSrc",
						"value": "$(contextPath)/services/rest/current-accounts/$(accountId)/turnover"
					},{
						"name": "preferenceService",
						"value": "$(contextPath)/services/rest/party-data-management/preferences"
					},{
						"name": "showTransactionIcons",
						"value": "false"
					},{
						"name": "showCharts",
						"value": "false"
					},{
						"name": "accountsTopBalance",
						"value": "current"
					},{
						"name": "paymentOrdersDataSrc",
						"value": "$(contextPath)/services/rest/payment-orders/$(orderId)"
					}],
					"license" : null,
					"licenseHref" : null,
					"icons" : [
						"$(contextRoot)/static/launchpad/widgets/login-multifactor/icon.png"
					],
					"content" : {
						"src" : "$(contextRoot)/static/launchpad/widgets/transactions/index.html",
						"type" : "text/html",
						"encoding" : "UTF-8"
					},
					"features" : []
				}
			]
		}
	]
},{
	"name": "New Transfer",
	"properties": {
		"icon": {
			"readonly": "true",
			"itemName": "defaultClosureMasterPage",
			"value": "/img/icons/ic_new-transfer.png",
			"type": "string"
		},
		"TemplateName": {
			"readonly": "true",
			"itemName": "defaultClosureMasterPage",
			"value": "LaunchpadPageTemplate",
			"type": "string"
		},
		"Description": {
			"readonly": "true",
			"itemName": "defaultClosureMasterPage",
			"type": "String"
		},
		"title": {
			"readonly": "true",
			"itemName": "page_1396861454825",
			"value": "New Transfer",
			"type": "string"
		},
		"createdBy": {
			"readonly": "true",
			"itemName": "page_1396861454825",
			"value": "admin",
			"type": "string"
		},
		"modifiedBy": {
			"readonly": "true",
			"itemName": "page_1396861454825",
			"type": "string"
		},
		"behaviors": {
			"readonly": "true",
			"itemName": "page_1396861454825",
			"value": "be.perspective.Manager be.portalClientExt.PortalManagerPreferencesForm",
			"type": "string"
		},
		"bd_seo_canonical": {
			"label": "Canonical",
			"readonly": "true",
			"itemName": "page_1396861454825",
			"value": "bfaa17cb-9761-4ef9-bf6a-6c55370fbe31",
			"type": "linkRef"
		},
		"bundleName": {
			"readonly": "true",
			"itemName": "page_1396861454825",
			"value": "dashboard",
			"type": "string"
		},
		"client-template": {
			"label": "Client Template",
			"readonly": "true",
			"itemName": "page_1396861454825",
			"value": "page",
			"type": "string"
		}
	},
	"tags": [
		"new-transfer"
	],
	"children": [
		{
			"name": "container_a721cd52-eee6-4a7e-a81a-a31995968209",
			"type": "container",
			"properties": {
				"autoExtend": {
					"readonly": "true",
					"itemName": "Manageable_Area_Closure",
					"value": "true",
					"type": "boolean"
				},
				"viewNamespace": {
					"readonly": "true",
					"itemName": "Manageable_Area_Closure",
					"value": "http://backbase.com/2013/aurora",
					"type": "string"
				},
				"TemplateName": {
					"readonly": "true",
					"itemName": "Manageable_Area_Closure",
					"value": "ManageableArea",
					"type": "string"
				},
				"isManageableArea": {
					"readonly": "true",
					"itemName": "Manageable_Area_Closure",
					"value": "true",
					"type": "boolean"
				},
				"Description": {
					"label": "Description",
					"readonly": "true",
					"itemName": "Manageable_Area_Closure",
					"value": "Area that will be manageable on regular pages. Items can be reordered, added and deleted.",
					"type": "string"
				},
				"title": {
					"readonly": "true",
					"itemName": "Manageable_Area_Closure",
					"value": "Manageable Area (Closure)",
					"type": "string"
				},
				"area": {
					"readonly": "true",
					"itemName": "Manageable_Area_defaultClosureMasterPage",
					"value": "0",
					"type": "string"
				},
				"order": {
					"readonly": "true",
					"itemName": "Manageable_Area_defaultClosureMasterPage",
					"value": "0.0",
					"type": "double"
				},
				"thumbnailUrl": {
					"readonly": "true",
					"itemName": "Manageable_Area_Closure",
					"value": "$(contextRoot)/static/backbase.com.2013.aurora/containers/ManageableArea/media/ManageableArea-icon.png",
					"type": "string"
				},
				"config": {
					"readonly": "true",
					"itemName": "Manageable_Area_Closure",
					"value": "$(contextRoot)/static/backbase.com.2013.aurora/containers/ManageableArea/config.xml",
					"type": "string"
				}
			},
			"tags": [
			],
			"children": [
				{
					"type": "widget",

					"id" : "widget-profile-74264273",
					"version" : "0.11.0",
					"height" : "500",
					"width" : "200",
					"viewmodes" : [
						"floating"
					],
					"name" : "Login",
					"shortName" : "Login",
					"description" : "Simple Portalserver accounts widget",
					"author" : "Foo Bar Corp",
					"authorHref" : "http://backbase.com/",
					"authorEmail" : "support@backbase.com",
					"preferences" : [{
						"name":"locale",
						"value":"en-EN",
						"readonly":true
					},{
						"name":"preLoad",
						"value": true,
						"readonly":true
					},{
						"name":"accountsTopBalance",
						"value":"current",
						"readonly":true
					},{
						"name":"contactsDataSrc",
						"value":"$(contextPath)/services/rest/party-data-management/counter-parties?partyId=$(partyId)",
						"readonly":true
					},{
						"name":"contactListDataSrc",
						"value":"$(contextPath)/services/rest/counterparties",
						"readonly":true
					},{
						"name":"paymentOrdersDataSrc",
						"value":"$(contextPath)/services/rest/payment-orders/$(orderId)",
						"readonly":true
					},{
						"name":"accountsDataSrc",
						"value":"$(contextPath)/services/rest/current-accounts?partyId=$(partyId)",
						"readonly":true
					},{
						"name":"contactDetailsDataSrc",
						"value":"$(contextPath)/services/rest/party-data-management/counter-party/$(contactId)/details",
						"readonly":true
					},{
						"name":"autosaveContactsPreference",
						"value":"",
						"readonly":true
					},{
						"name":"messageSrc",
						"value":"$(contextPath)/static/launchpad/widgets/new-transfer/data/messages.json",
						"readonly":true
					},{
						"name":"ibanDataSrc",
						"value":"$(contextPath)/services/rest/iban",
						"readonly":true
					},{
						"name":"enableIbanCountrySearch",
						"value":"true",
						"readonly":true
					},{
						"name":"defaultCurrencyEndpoint",
						"value":"$(contextPath)/services/rest/currency-rates/default",
						"readonly":true
					},{
						"name":"currencyListEndpoint",
						"value":"$(contextPath)/services/rest/currency-rates",
						"readonly":true
					},{
						"name":"disableCurrencySelection",
						"value":"false",
						"readonly":true
					},{
						"name":"templateUrl",
						"value":"$(contextRoot)/static/launchpad/widgets/new-transfer/partials/iceContent.html",
						"readonly":true
					},{
						"name":"forceAccountSelection",
						"value":"false",
						"readonly":true
					},{
						"name":"p2pEnrollmentEndpoint",
						"value":"$(contextPath)/services/rest/p2p-enrollment",
						"readonly":true
					}],
					"license" : null,
					"licenseHref" : null,
					"icons" : [
						"$(contextRoot)/static/launchpad/widgets/login-multifactor/icon.png"
					],
					"content" : {
						"src" : "$(contextRoot)/static/launchpad/widgets/new-transfer/index.html",
						"type" : "text/html",
						"encoding" : "UTF-8"
					},
					"features" : []
				}
			]
		}
	]
},{
	"name": "Review Transfers",
	"properties": {
		"icon": {
			"readonly": "true",
			"itemName": "defaultClosureMasterPage",
			"value": "/img/icons/ic_review-transfers.png",
			"type": "string"
		},
		"TemplateName": {
			"readonly": "true",
			"itemName": "defaultClosureMasterPage",
			"value": "LaunchpadPageTemplate",
			"type": "string"
		},
		"Description": {
			"readonly": "true",
			"itemName": "defaultClosureMasterPage",
			"type": "String"
		},
		"title": {
			"readonly": "true",
			"itemName": "page_1396861454825",
			"value": "Review Transfers",
			"type": "string"
		},
		"createdBy": {
			"readonly": "true",
			"itemName": "page_1396861454825",
			"value": "admin",
			"type": "string"
		},
		"modifiedBy": {
			"readonly": "true",
			"itemName": "page_1396861454825",
			"type": "string"
		},
		"behaviors": {
			"readonly": "true",
			"itemName": "page_1396861454825",
			"value": "be.perspective.Manager be.portalClientExt.PortalManagerPreferencesForm",
			"type": "string"
		},
		"bd_seo_canonical": {
			"label": "Canonical",
			"readonly": "true",
			"itemName": "page_1396861454825",
			"value": "bfaa17cb-9761-4ef9-bf6a-6c55370fbe31",
			"type": "linkRef"
		},
		"bundleName": {
			"readonly": "true",
			"itemName": "page_1396861454825",
			"value": "dashboard",
			"type": "string"
		},
		"client-template": {
			"label": "Client Template",
			"readonly": "true",
			"itemName": "page_1396861454825",
			"value": "page",
			"type": "string"
		}
	},
	"tags": [
		"review-transfers"
	],
	"children": [
		{
			"name": "container_a721cd52-eee6-4a7e-a81a-a31995968209",
			"type": "container",
			"properties": {
				"autoExtend": {
					"readonly": "true",
					"itemName": "Manageable_Area_Closure",
					"value": "true",
					"type": "boolean"
				},
				"viewNamespace": {
					"readonly": "true",
					"itemName": "Manageable_Area_Closure",
					"value": "http://backbase.com/2013/aurora",
					"type": "string"
				},
				"TemplateName": {
					"readonly": "true",
					"itemName": "Manageable_Area_Closure",
					"value": "ManageableArea",
					"type": "string"
				},
				"isManageableArea": {
					"readonly": "true",
					"itemName": "Manageable_Area_Closure",
					"value": "true",
					"type": "boolean"
				},
				"Description": {
					"label": "Description",
					"readonly": "true",
					"itemName": "Manageable_Area_Closure",
					"value": "Area that will be manageable on regular pages. Items can be reordered, added and deleted.",
					"type": "string"
				},
				"title": {
					"readonly": "true",
					"itemName": "Manageable_Area_Closure",
					"value": "Manageable Area (Closure)",
					"type": "string"
				},
				"area": {
					"readonly": "true",
					"itemName": "Manageable_Area_defaultClosureMasterPage",
					"value": "0",
					"type": "string"
				},
				"order": {
					"readonly": "true",
					"itemName": "Manageable_Area_defaultClosureMasterPage",
					"value": "0.0",
					"type": "double"
				},
				"thumbnailUrl": {
					"readonly": "true",
					"itemName": "Manageable_Area_Closure",
					"value": "$(contextRoot)/static/backbase.com.2013.aurora/containers/ManageableArea/media/ManageableArea-icon.png",
					"type": "string"
				},
				"config": {
					"readonly": "true",
					"itemName": "Manageable_Area_Closure",
					"value": "$(contextRoot)/static/backbase.com.2013.aurora/containers/ManageableArea/config.xml",
					"type": "string"
				}
			},
			"tags": [

			],
			"children": [
				{
					"type": "widget",

					"id" : "widget-profile-7426473",
					"version" : "0.11.0",
					"height" : "500",
					"width" : "200",
					"viewmodes" : [
						"floating"
					],
					"name" : "Login",
					"shortName" : "Login",
					"description" : "Simple Portalserver accounts widget",
					"author" : "Foo Bar Corp",
					"authorHref" : "http://backbase.com/",
					"authorEmail" : "support@backbase.com",
					"preferences" : [{
						"name":"accountsDataSrc",
						"value":"$(contextPath)/services/rest/current-accounts?partyId=$(partyId)",
						"readonly":true
					},{
						"name":"preLoad",
						"value": true,
						"readonly":true
					},{
						"name":"pendingPaymentOrdersDataSrc",
						"value":"$(contextPath)/services/rest/payment-orders/?partyId=$(partyId)",
						"readonly":true
					},{
						"name":"paymentOrdersSubmitPoint",
						"value":"$(contextPath)/services/rest/payment-orders/$(orderId)",
						"readonly":true
					},{
						"name":"messageSrc",
						"value":"$(contextPath)/static/launchpad/widgets/review-transfers/data/messages.json",
						"readonly":true
					},{
						"name":"p2pEnrollmentEndpoint",
						"value":"$(contextPath)/services/rest/p2p-enrollment",
						"readonly":true
					}],
					"license" : null,
					"licenseHref" : null,
					"icons" : [
						"$(contextRoot)/static/launchpad/widgets/login-multifactor/icon.png"
					],
					"content" : {
						"src" : "$(contextRoot)/static/launchpad/widgets/review-transfers/index.html",
						"type" : "text/html",
						"encoding" : "UTF-8"
					},
					"features" : []
				}
			]
		}
	]
}]}
