[
   {
      "id" : "TOTAL_REWARDS",
      "label" : "Total available rewards",
      "value" : "20,322",
      "type" : "number"
   },
   {
      "id" : "LAST_UPDATED",
      "label" : "Last updated",
      "value" : "1417910400000",
      "type" : "datetime"
   },
   {
      "id" : "PENDING",
      "label" : "Pending",
      "value" : "0",
      "type" : "number"
   },
   {
      "id" : "EARNED",
      "label" : "Earned",
      "value" : "3",
      "type" : "number"
   },
   {
      "id" : "REDEEMED",
      "label" : "Reedemed",
      "value" : "3",
      "type" : "number"
   },
   {
      "id" : "TRANSFERED",
      "label" : "Transferred",
      "value" : "0",
      "type" : "number"
   },
   {
      "id" : "EXPIRATION_SCHEDULE",
      "label" : "Expiration schedule",
      "value" : "http://www.google.com",
      "type" : "link"
   }
]