[
    {
        "@id": "dfc369a5-81c3-4959-99a2-e531e4178458",
        "paymentOrder": {
            "accountId": "dfc369a5-81c3-4959-99a2-e531e4178458",
            "counterpartyAccount": "999999999",
            "counterpartyName": "Alexey",
            "creditorReference": [],
            "id": "E7JG31JU8I7B6QG2ASRSMU9Q3TAX13TV",
            "initiationDateTime": 1.38011868932E12,
            "instructedAmount": 100,
            "instructedCurrency": "EUR",
            "paymentCategory": [],
            "remittanceInformation": [],
            "requestedExecutionDate": 1.380118689246E12,
            "status": "Received"
        }
    }
]