[{
    "logoPath": "/static/pcfinancial/widgets/pcf-new-transfer/media/atlanticelec.png",
    "account": "088398095",
    "name": "Atlantic City Electric"
}, {
    "logoPath": "/static/pcfinancial/widgets/pcf-new-transfer/media/tealounge.png",
    "account": "681659175",
    "name": "The Tea Lounge"
}, {
    "logoPath": "/static/pcfinancial/widgets/pcf-new-transfer/media/tmobile.png",
    "account": "133974008",
    "name": "T-Mobile"
}, {
    "logoPath": "/static/pcfinancial/widgets/pcf-new-transfer/media/texaco.png",
    "account": "645085435",
    "name": "Texaco"
}]
