{
	"merchantType" : "Merchant Type",
	"description" : "Description",
	"businessType" : "Business Type",
	"prevBalance" : "Previous Balance",
	"authorizationAmount" : "Authorization amount",
	"merchantCity" : "Merchant City",
	"merchantName" : "Merchant Name",
	"merchantNumber" : "Merchant No",
	"merchantState" : "Merchant State",
	"merchantZipCode" : "Merchant Zip Code",
	"retrievalReferenceNumber" : "Reference No",
	"settledAmount" : "Settled Amount",
	"toleranceAmount" : "Tolerance Amount",
	"transactionDateAndTime" : "Date/Time",
	"transactionId" : "Reference",
	"remittanceInformation" : "Description"


}